hdrId,reqId,name,value
1,1,Host,xsadv.sfphcp.com
2,1,Connection,keep-alive
3,1,Pragma,no-cache
4,1,Cache-Control,no-cache
5,2,Host,xsadv.sfphcp.com
6,2,Connection,keep-alive
7,2,Pragma,no-cache
8,2,Cache-Control,no-cache